\relax 
\ifx\hyper@anchor\@undefined
\global \let \oldcontentsline\contentsline
\gdef \contentsline#1#2#3#4{\oldcontentsline{#1}{#2}{#3}}
\global \let \oldnewlabel\newlabel
\gdef \newlabel#1#2{\newlabelxx{#1}#2}
\gdef \newlabelxx#1#2#3#4#5#6{\oldnewlabel{#1}{{#2}{#3}}}
\AtEndDocument{\let \contentsline\oldcontentsline
\let \newlabel\oldnewlabel}
\else
\global \let \hyper@last\relax 
\fi

\providecommand*\HyPL@Entry[1]{}
\catcode`"\active
\@input{dedica.aux}
\HyPL@Entry{0 << /S /D >> }
\select@language{italian}
\@writefile{toc}{\select@language{italian}}
\@writefile{lof}{\select@language{italian}}
\@writefile{lot}{\select@language{italian}}
\@input{ringraziamenti.aux}
\@input{prefazione.aux}
\citation{PrezziMemorie}
\citation{MooreLaw}
\@writefile{toc}{\contentsline {chapter}{\numberline {1}Introduzione}{9}{chapter.1}}
\@writefile{lof}{\addvspace {10\p@ }}
\@writefile{lot}{\addvspace {10\p@ }}
\citation{PropACID}
\@writefile{toc}{\contentsline {chapter}{\numberline {2}La tematica Big Data}{11}{chapter.2}}
\@writefile{lof}{\addvspace {10\p@ }}
\@writefile{lot}{\addvspace {10\p@ }}
\@writefile{toc}{\contentsline {section}{\numberline {2.1}Cosa si intende per <<Big Data>>}{11}{section.2.1}}
\@writefile{toc}{\contentsline {section}{\numberline {2.2}Contesti di utilizzo delle tecnologie Big Data}{13}{section.2.2}}
\@writefile{toc}{\contentsline {section}{\numberline {2.3}Cloud computing}{13}{section.2.3}}
\@writefile{toc}{\contentsline {subsection}{\numberline {2.3.1}Amazon EC2}{13}{subsection.2.3.1}}
\@writefile{toc}{\contentsline {subsection}{\numberline {2.3.2}Heroku}{13}{subsection.2.3.2}}
\@writefile{toc}{\contentsline {section}{\numberline {2.4}Tecnologie e modelli per il big data}{13}{section.2.4}}
\@writefile{toc}{\contentsline {subsection}{\numberline {2.4.1}ETL e ELT}{13}{subsection.2.4.1}}
\citation{DOCformat}
\citation{MapReduce}
\@writefile{toc}{\contentsline {subsection}{\numberline {2.4.2}MapReduce}{16}{subsection.2.4.2}}
\citation{TeraSort}
\@writefile{toc}{\contentsline {subsection}{\numberline {2.4.3}Hadoop}{18}{subsection.2.4.3}}
\@writefile{lof}{\contentsline {figure}{\numberline {2.1}{\ignorespaces \includegraphics [width=0.9\columnwidth ]{hadoop_stack}}}{19}{figure.2.1}}
\newlabel{fig:stack-hadoop}{{2.1}{19}{\label {fig:stack-hadoop}\protect \includegraphics [width=0.9\columnwidth ]{hadoop_stack}\relax }{figure.2.1}{}}
\@writefile{toc}{\contentsline {subsubsection}{\numberline {2.4.3.1}Architettura di una rete Hadoop}{20}{subsubsection.2.4.3.1}}
\@writefile{toc}{\contentsline {subsubsection}{\numberline {2.4.3.2}Tolleranza ai guasti}{20}{subsubsection.2.4.3.2}}
\citation{MSHardwareReliability}
\newlabel{eq:MTTFrete}{{2.5}{21}{Tolleranza ai guasti\relax }{equation.2.5}{}}
\citation{FAIRScheduler}
\@writefile{toc}{\contentsline {subsubsection}{\numberline {2.4.3.3}Politica di scheduling}{22}{subsubsection.2.4.3.3}}
\@writefile{toc}{\contentsline {subsubsection}{\numberline {2.4.3.4}Oozie}{22}{subsubsection.2.4.3.4}}
\newlabel{sub:Filesystem-distribuiti}{{2.4.4}{23}{Filesystem distribuiti\label {sub:Filesystem-distribuiti}\relax }{subsection.2.4.4}{}}
\@writefile{toc}{\contentsline {subsection}{\numberline {2.4.4}Filesystem distribuiti}{23}{subsection.2.4.4}}
\@writefile{toc}{\contentsline {subsection}{\numberline {2.4.5}ZooKeeper}{25}{subsection.2.4.5}}
\citation{LuceneCore}
\@writefile{toc}{\contentsline {subsection}{\numberline {2.4.6}Lucene}{26}{subsection.2.4.6}}
\@writefile{toc}{\contentsline {subsection}{\numberline {2.4.7}Solr}{26}{subsection.2.4.7}}
\@writefile{toc}{\contentsline {subsection}{\numberline {2.4.8}Apache UIMA}{27}{subsection.2.4.8}}
\@writefile{toc}{\contentsline {section}{\numberline {2.5}Database NoSQL}{27}{section.2.5}}
\citation{CapTheoremFormal}
\@writefile{toc}{\contentsline {subsection}{\numberline {2.5.1}Il CAP theorem}{28}{subsection.2.5.1}}
\citation{ACMHTWikipedia}
\@writefile{toc}{\contentsline {subsection}{\numberline {2.5.2}Classificazione dei database NoSQL}{29}{subsection.2.5.2}}
\citation{CassandraIterateAll}
\@writefile{toc}{\contentsline {subsection}{\numberline {2.5.3}MongoDB}{32}{subsection.2.5.3}}
\citation{MongoSharding}
\citation{GridFSAPI}
\citation{MongoMapReduce}
\@writefile{toc}{\contentsline {subsubsection}{\numberline {2.5.3.1}Test di MongoDB}{35}{subsubsection.2.5.3.1}}
\@writefile{toc}{\contentsline {paragraph}{Installazione e configurazione}{36}{section*.7}}
\@writefile{toc}{\contentsline {paragraph}{Importazione del file XML}{36}{section*.8}}
\@writefile{lot}{\contentsline {table}{\numberline {2.1}{\ignorespaces I tempi di esecuzione per l'inserimento delle voci di en.wiktionary in singoli documenti di MongoDB a partire dal dump xml memorizzato in GridFS}}{38}{table.2.1}}
\newlabel{tab:tempi-mongo}{{2.1}{38}{\label {tab:tempi-mongo}I tempi di esecuzione per l'inserimento delle voci di en.wiktionary in singoli documenti di MongoDB a partire dal dump xml memorizzato in GridFS\relax }{table.2.1}{}}
\@writefile{lof}{\contentsline {figure}{\numberline {2.2}{\ignorespaces \includegraphics [width=0.9\columnwidth ]{tempi_mongo.png}}}{38}{figure.2.2}}
\newlabel{fig:mongo-grafico}{{2.2}{38}{\label {fig:mongo-grafico}\protect \includegraphics [width=0.9\columnwidth ]{tempi_mongo.png}\relax }{figure.2.2}{}}
\newlabel{Flo:HBase}{{2.5.3.1}{39}{HBase\relax }{section*.9}{}}
\@writefile{lof}{\contentsline {figure}{\numberline {2.3}{\ignorespaces \includegraphics [width=0.9\columnwidth ]{HBase}}}{39}{figure.2.3}}
\@writefile{toc}{\contentsline {paragraph}{Versioning basato sui timestamp}{40}{section*.10}}
\@writefile{toc}{\contentsline {subsubsection}{\numberline {2.5.3.2}I filtri di Bloom}{41}{subsubsection.2.5.3.2}}
\newlabel{Flo:Bloom-tab}{{2.5.3.2}{42}{I filtri di Bloom\relax }{equation.2.6}{}}
\@writefile{lot}{\contentsline {table}{\numberline {2.2}{\ignorespaces Le probabilit\`a di collisione di un elemento assegnato a un filtro di Bloom con $k$ funzioni di hashing, $p$ valori inseriti in precedenza e un array da $m$ bit.}}{42}{table.2.2}}
\newlabel{eq:prob-Bloom}{{2.6}{42}{I filtri di Bloom\relax }{equation.2.6}{}}
\@writefile{toc}{\contentsline {subsection}{\numberline {2.5.4}Linguaggi utilizzati nei sistemi Big Data}{43}{subsection.2.5.4}}
\@writefile{toc}{\contentsline {subsubsection}{\numberline {2.5.4.1}Java}{43}{subsubsection.2.5.4.1}}
\citation{TIOBEJava}
\@writefile{toc}{\contentsline {subsubsection}{\numberline {2.5.4.2}I linguaggi funzionali per la JVM e Scala}{47}{subsubsection.2.5.4.2}}
\citation{AkkaClustering}
\@writefile{toc}{\contentsline {subsubsection}{\numberline {2.5.4.3}Hive}{51}{subsubsection.2.5.4.3}}
\@writefile{toc}{\contentsline {subsubsection}{\numberline {2.5.4.4}Pig}{51}{subsubsection.2.5.4.4}}
\@writefile{toc}{\contentsline {paragraph}{Gestione del parallelismo con UDF arbitrarie}{52}{section*.12}}
\@writefile{toc}{\contentsline {subsubsection}{\numberline {2.5.4.5}Jaql}{53}{subsubsection.2.5.4.5}}
\@writefile{toc}{\contentsline {subsubsection}{\numberline {2.5.4.6}AQL}{54}{subsubsection.2.5.4.6}}
\@writefile{toc}{\contentsline {section}{\numberline {2.6}IBM Biginsights}{54}{section.2.6}}
\@writefile{toc}{\contentsline {subsection}{\numberline {2.6.1}Presentazione della piattaforma e confronto con altre soluzioni}{55}{subsection.2.6.1}}
\@writefile{toc}{\contentsline {subsubsection}{\numberline {2.6.1.1}GPFS}{56}{subsubsection.2.6.1.1}}
\citation{GPFSGuide}
\citation{GPFSGuide}
\@writefile{toc}{\contentsline {subsection}{\numberline {2.6.2}Integrazione con altre tecnologie}{59}{subsection.2.6.2}}
\@writefile{toc}{\contentsline {subsection}{\numberline {2.6.3}Strumenti offerti}{60}{subsection.2.6.3}}
\@writefile{toc}{\contentsline {subsection}{\numberline {2.6.4}Gestione della piattaforma}{60}{subsection.2.6.4}}
\@writefile{toc}{\contentsline {chapter}{\numberline {3}Caso di studio}{61}{chapter.3}}
\@writefile{lof}{\addvspace {10\p@ }}
\@writefile{lot}{\addvspace {10\p@ }}
\@writefile{toc}{\contentsline {section}{\numberline {3.1}Presentazione e descrizione del problema}{61}{section.3.1}}
\@writefile{toc}{\contentsline {section}{\numberline {3.2}Obiettivi preposti}{62}{section.3.2}}
\newlabel{sub:Il-problema-dell'estrazione}{{3.2.1}{62}{Il problema dell'estrazione di dati dalle pagine web\label {sub:Il-problema-dell'estrazione}\relax }{subsection.3.2.1}{}}
\@writefile{toc}{\contentsline {subsection}{\numberline {3.2.1}Il problema dell'estrazione di dati dalle pagine web}{62}{subsection.3.2.1}}
\citation{XHTMLSpecifications}
\@writefile{toc}{\contentsline {subsubsection}{\numberline {3.2.1.1}Gestione degli script e del contenuto caricato dinamicamente}{63}{subsubsection.3.2.1.1}}
\@writefile{toc}{\contentsline {subsection}{\numberline {3.2.2}Sentiment analysis del testo}{64}{subsection.3.2.2}}
\@writefile{toc}{\contentsline {subsection}{\numberline {3.2.3}Abbinamento dei messaggi alla posizione geografica}{64}{subsection.3.2.3}}
\@writefile{toc}{\contentsline {subsection}{\numberline {3.2.4}Identificazione dell'argomento}{65}{subsection.3.2.4}}
\@writefile{toc}{\contentsline {subsection}{\numberline {3.2.5}Reporting}{65}{subsection.3.2.5}}
\@writefile{toc}{\contentsline {chapter}{\numberline {4}Progettazione e implementazione di una soluzione}{67}{chapter.4}}
\@writefile{lof}{\addvspace {10\p@ }}
\@writefile{lot}{\addvspace {10\p@ }}
\@writefile{toc}{\contentsline {section}{\numberline {4.1}Estrazione delle informazioni da siti web generici}{67}{section.4.1}}
\@writefile{toc}{\contentsline {subsection}{\numberline {4.1.1}Wget e httrack}{67}{subsection.4.1.1}}
\@writefile{toc}{\contentsline {subsection}{\numberline {4.1.2}Esame di Apache Nutch}{68}{subsection.4.1.2}}
\@writefile{toc}{\contentsline {subsection}{\numberline {4.1.3}Realizzazione di uno scraper}{70}{subsection.4.1.3}}
\@writefile{lof}{\contentsline {figure}{\numberline {4.1}{\ignorespaces \includegraphics [width=0.9\columnwidth ]{sequence_primo}}}{72}{figure.4.1}}
\newlabel{Flo:seuqence-diagr-prima}{{4.1}{72}{\protect \includegraphics [width=0.9\columnwidth ]{sequence_primo}\relax }{figure.4.1}{}}
\@writefile{toc}{\contentsline {paragraph}{Scelta di un sistema di scripting per aumentare la flessibilit\`a}{73}{section*.20}}
\@writefile{toc}{\contentsline {subsubsection}{\numberline {4.1.3.1}Integrazione dello scraper con Mozilla Rhino}{73}{subsubsection.4.1.3.1}}
\@writefile{toc}{\contentsline {paragraph}{Compilazione a runtime del codice JavaScript e esecuzione concorrente}{74}{section*.21}}
\@writefile{toc}{\contentsline {subsection}{\numberline {4.1.4}Gestione del contesto e dei contenuti caricati dinamicamente}{76}{subsection.4.1.4}}
\@writefile{toc}{\contentsline {paragraph}{Estrazione agile dei contenuti caricati dinamicamente}{77}{section*.22}}
\@writefile{lof}{\contentsline {figure}{\numberline {4.2}{\ignorespaces \includegraphics [width=0.9\columnwidth ]{sequence_secondo}}}{79}{figure.4.2}}
\newlabel{Flo:sequence-diagr-secondo}{{4.2}{79}{\protect \includegraphics [width=0.9\columnwidth ]{sequence_secondo}\relax }{figure.4.2}{}}
\@writefile{toc}{\contentsline {subsection}{\numberline {4.1.5}Esecuzione parallela dello scraper}{79}{subsection.4.1.5}}
\@writefile{toc}{\contentsline {subsection}{\numberline {4.1.6}Analisi della scalabilit\`a dello scraper}{79}{subsection.4.1.6}}
\@writefile{toc}{\contentsline {subsubsection}{\numberline {4.1.6.1}Progettazione di un benchmark}{80}{subsubsection.4.1.6.1}}
\@writefile{toc}{\contentsline {subsubsection}{\numberline {4.1.6.2}Implementazione del benchmark}{81}{subsubsection.4.1.6.2}}
\@writefile{lof}{\contentsline {figure}{\numberline {4.3}{\ignorespaces \includegraphics [width=0.9\columnwidth ]{andamento_uno}}}{82}{figure.4.3}}
\newlabel{fig:andamento-scraper-crashato}{{4.3}{82}{\label {fig:andamento-scraper-crashato}\protect \includegraphics [width=0.9\columnwidth ]{andamento_uno}\relax }{figure.4.3}{}}
\@writefile{toc}{\contentsline {subsubsection}{\numberline {4.1.6.3}Risultati ottenuti e loro significato}{82}{subsubsection.4.1.6.3}}
\@writefile{toc}{\contentsline {subsection}{\numberline {4.1.7}Implementazione di un filtro di Bloom}{82}{subsection.4.1.7}}
\@writefile{lof}{\contentsline {figure}{\numberline {4.4}{\ignorespaces \includegraphics [width=0.8\columnwidth ]{hash_bloom}}}{83}{figure.4.4}}
\newlabel{fig:bloom-hash}{{4.4}{83}{\label {fig:bloom-hash}\protect \includegraphics [width=0.8\columnwidth ]{hash_bloom}\relax }{figure.4.4}{}}
\@writefile{toc}{\contentsline {chapter}{\numberline {5}Analisi dei risultati}{85}{chapter.5}}
\@writefile{lof}{\addvspace {10\p@ }}
\@writefile{lot}{\addvspace {10\p@ }}
\@writefile{toc}{\contentsline {chapter}{\numberline {6}Conclusioni}{87}{chapter.6}}
\@writefile{lof}{\addvspace {10\p@ }}
\@writefile{lot}{\addvspace {10\p@ }}
\@input{contestiBD.aux}
\@input{tecnologie.aux}
\citation{*}
\bibstyle{plain}
\bibstyle{plain}
\bibdata{Tesi}
\bibcite{sito_Dynasym}{1}
\bibcite{PrezziMemorie}{2}
\bibcite{sito_modelica}{3}
\bibcite{elicottero}{4}
\bibcite{Modelica_tutorial}{5}
\bibcite{Castelnuovo-Gotti}{6}
\bibcite{Dymola_users}{7}
\bibcite{Engelson}{8}
\bibcite{Ferr_Magn_Roc}{9}
\bibcite{Finzi_Dinamica}{10}
\bibcite{Fritzson}{11}
\bibcite{HW}{12}
\@writefile{toc}{\contentsline {chapter}{Bibliografia}{91}{chapter*.24}}
\bibcite{Magnani_ITSC}{13}
\bibcite{MooreLaw}{14}
\bibcite{Pagan}{15}
\bibcite{Adaptative}{16}
\bibcite{Sciavicco}{17}
\bibcite{comparison}{18}
\bibcite{HTF}{19}
\newlabel{sec:WordCount.java}{{6.1}{93}{WordCount.java\label {sec:WordCount.java}\relax }{section.6.1}{}}
\@writefile{toc}{\contentsline {section}{\numberline {6.1}WordCount.java}{93}{section.6.1}}
\newlabel{sec:WordCount-con-Pig}{{6.2}{95}{WordCount con Pig Latin\label {sec:WordCount-con-Pig}\relax }{section.6.2}{}}
\@writefile{toc}{\contentsline {section}{\numberline {6.2}WordCount con Pig Latin}{95}{section.6.2}}
\newlabel{sec:WordCount-in-Jaql}{{6.3}{95}{WordCount in Jaql\label {sec:WordCount-in-Jaql}\relax }{section.6.3}{}}
\@writefile{toc}{\contentsline {section}{\numberline {6.3}WordCount in Jaql}{95}{section.6.3}}
\@writefile{toc}{\contentsline {chapter}{Elenco delle tabelle}{97}{chapter*.26}}
